<?xml version='1.0' encoding='utf-8'?>
<svg xmlns:xlink="http://www.w3.org/1999/xlink" class="pygal-chart" id="chart-08dad1c4-ce99-4c8b-b4a9-c4a8780dc397" viewBox="0 0 800 600" xmlns="http://www.w3.org/2000/svg"><!--Generated with pygal 2.4.0 (etree) ©Kozea 2012-2016 on 2018-08-07--><!--http://pygal.org--><!--http://github.com/Kozea/pygal--><defs><style type="text/css">#chart-08dad1c4-ce99-4c8b-b4a9-c4a8780dc397{-webkit-user-select:none;-webkit-font-smoothing:antialiased;font-family:Consolas,"Liberation Mono",Menlo,Courier,monospace}#chart-08dad1c4-ce99-4c8b-b4a9-c4a8780dc397 .title{font-family:Consolas,"Liberation Mono",Menlo,Courier,monospace;font-size:16px}#chart-08dad1c4-ce99-4c8b-b4a9-c4a8780dc397 .legends .legend text{font-family:Consolas,"Liberation Mono",Menlo,Courier,monospace;font-size:14px}#chart-08dad1c4-ce99-4c8b-b4a9-c4a8780dc397 .axis text{font-family:Consolas,"Liberation Mono",Menlo,Courier,monospace;font-size:10px}#chart-08dad1c4-ce99-4c8b-b4a9-c4a8780dc397 .axis text.major{font-family:Consolas,"Liberation Mono",Menlo,Courier,monospace;font-size:10px}#chart-08dad1c4-ce99-4c8b-b4a9-c4a8780dc397 .text-overlay text.value{font-family:Consolas,"Liberation Mono",Menlo,Courier,monospace;font-size:16px}#chart-08dad1c4-ce99-4c8b-b4a9-c4a8780dc397 .text-overlay text.label{font-family:Consolas,"Liberation Mono",Menlo,Courier,monospace;font-size:10px}#chart-08dad1c4-ce99-4c8b-b4a9-c4a8780dc397 .tooltip{font-family:Consolas,"Liberation Mono",Menlo,Courier,monospace;font-size:14px}#chart-08dad1c4-ce99-4c8b-b4a9-c4a8780dc397 text.no_data{font-family:Consolas,"Liberation Mono",Menlo,Courier,monospace;font-size:64px}
#chart-08dad1c4-ce99-4c8b-b4a9-c4a8780dc397{background-color:rgba(249,249,249,1)}#chart-08dad1c4-ce99-4c8b-b4a9-c4a8780dc397 path,#chart-08dad1c4-ce99-4c8b-b4a9-c4a8780dc397 line,#chart-08dad1c4-ce99-4c8b-b4a9-c4a8780dc397 rect,#chart-08dad1c4-ce99-4c8b-b4a9-c4a8780dc397 circle{-webkit-transition:150ms;-moz-transition:150ms;transition:150ms}#chart-08dad1c4-ce99-4c8b-b4a9-c4a8780dc397 .graph &gt; .background{fill:rgba(249,249,249,1)}#chart-08dad1c4-ce99-4c8b-b4a9-c4a8780dc397 .plot &gt; .background{fill:rgba(255,255,255,1)}#chart-08dad1c4-ce99-4c8b-b4a9-c4a8780dc397 .graph{fill:rgba(0,0,0,.87)}#chart-08dad1c4-ce99-4c8b-b4a9-c4a8780dc397 text.no_data{fill:rgba(0,0,0,1)}#chart-08dad1c4-ce99-4c8b-b4a9-c4a8780dc397 .title{fill:rgba(0,0,0,1)}#chart-08dad1c4-ce99-4c8b-b4a9-c4a8780dc397 .legends .legend text{fill:rgba(0,0,0,.87)}#chart-08dad1c4-ce99-4c8b-b4a9-c4a8780dc397 .legends .legend:hover text{fill:rgba(0,0,0,1)}#chart-08dad1c4-ce99-4c8b-b4a9-c4a8780dc397 .axis .line{stroke:rgba(0,0,0,1)}#chart-08dad1c4-ce99-4c8b-b4a9-c4a8780dc397 .axis .guide.line{stroke:rgba(0,0,0,.54)}#chart-08dad1c4-ce99-4c8b-b4a9-c4a8780dc397 .axis .major.line{stroke:rgba(0,0,0,.87)}#chart-08dad1c4-ce99-4c8b-b4a9-c4a8780dc397 .axis text.major{fill:rgba(0,0,0,1)}#chart-08dad1c4-ce99-4c8b-b4a9-c4a8780dc397 .axis.y .guides:hover .guide.line,#chart-08dad1c4-ce99-4c8b-b4a9-c4a8780dc397 .line-graph .axis.x .guides:hover .guide.line,#chart-08dad1c4-ce99-4c8b-b4a9-c4a8780dc397 .stackedline-graph .axis.x .guides:hover .guide.line,#chart-08dad1c4-ce99-4c8b-b4a9-c4a8780dc397 .xy-graph .axis.x .guides:hover .guide.line{stroke:rgba(0,0,0,1)}#chart-08dad1c4-ce99-4c8b-b4a9-c4a8780dc397 .axis .guides:hover text{fill:rgba(0,0,0,1)}#chart-08dad1c4-ce99-4c8b-b4a9-c4a8780dc397 .reactive{fill-opacity:.7;stroke-opacity:.8}#chart-08dad1c4-ce99-4c8b-b4a9-c4a8780dc397 .ci{stroke:rgba(0,0,0,.87)}#chart-08dad1c4-ce99-4c8b-b4a9-c4a8780dc397 .reactive.active,#chart-08dad1c4-ce99-4c8b-b4a9-c4a8780dc397 .active .reactive{fill-opacity:.8;stroke-opacity:.9;stroke-width:4}#chart-08dad1c4-ce99-4c8b-b4a9-c4a8780dc397 .ci .reactive.active{stroke-width:1.5}#chart-08dad1c4-ce99-4c8b-b4a9-c4a8780dc397 .series text{fill:rgba(0,0,0,1)}#chart-08dad1c4-ce99-4c8b-b4a9-c4a8780dc397 .tooltip rect{fill:rgba(255,255,255,1);stroke:rgba(0,0,0,1);-webkit-transition:opacity 150ms;-moz-transition:opacity 150ms;transition:opacity 150ms}#chart-08dad1c4-ce99-4c8b-b4a9-c4a8780dc397 .tooltip .label{fill:rgba(0,0,0,.87)}#chart-08dad1c4-ce99-4c8b-b4a9-c4a8780dc397 .tooltip .label{fill:rgba(0,0,0,.87)}#chart-08dad1c4-ce99-4c8b-b4a9-c4a8780dc397 .tooltip .legend{font-size:.8em;fill:rgba(0,0,0,.54)}#chart-08dad1c4-ce99-4c8b-b4a9-c4a8780dc397 .tooltip .x_label{font-size:.6em;fill:rgba(0,0,0,1)}#chart-08dad1c4-ce99-4c8b-b4a9-c4a8780dc397 .tooltip .xlink{font-size:.5em;text-decoration:underline}#chart-08dad1c4-ce99-4c8b-b4a9-c4a8780dc397 .tooltip .value{font-size:1.5em}#chart-08dad1c4-ce99-4c8b-b4a9-c4a8780dc397 .bound{font-size:.5em}#chart-08dad1c4-ce99-4c8b-b4a9-c4a8780dc397 .max-value{font-size:.75em;fill:rgba(0,0,0,.54)}#chart-08dad1c4-ce99-4c8b-b4a9-c4a8780dc397 .map-element{fill:rgba(255,255,255,1);stroke:rgba(0,0,0,.54) !important}#chart-08dad1c4-ce99-4c8b-b4a9-c4a8780dc397 .map-element .reactive{fill-opacity:inherit;stroke-opacity:inherit}#chart-08dad1c4-ce99-4c8b-b4a9-c4a8780dc397 .color-0,#chart-08dad1c4-ce99-4c8b-b4a9-c4a8780dc397 .color-0 a:visited{stroke:#F44336;fill:#F44336}#chart-08dad1c4-ce99-4c8b-b4a9-c4a8780dc397 .color-1,#chart-08dad1c4-ce99-4c8b-b4a9-c4a8780dc397 .color-1 a:visited{stroke:#3F51B5;fill:#3F51B5}#chart-08dad1c4-ce99-4c8b-b4a9-c4a8780dc397 .color-2,#chart-08dad1c4-ce99-4c8b-b4a9-c4a8780dc397 .color-2 a:visited{stroke:#009688;fill:#009688}#chart-08dad1c4-ce99-4c8b-b4a9-c4a8780dc397 .color-3,#chart-08dad1c4-ce99-4c8b-b4a9-c4a8780dc397 .color-3 a:visited{stroke:#FFC107;fill:#FFC107}#chart-08dad1c4-ce99-4c8b-b4a9-c4a8780dc397 .color-4,#chart-08dad1c4-ce99-4c8b-b4a9-c4a8780dc397 .color-4 a:visited{stroke:#FF5722;fill:#FF5722}#chart-08dad1c4-ce99-4c8b-b4a9-c4a8780dc397 .color-5,#chart-08dad1c4-ce99-4c8b-b4a9-c4a8780dc397 .color-5 a:visited{stroke:#9C27B0;fill:#9C27B0}#chart-08dad1c4-ce99-4c8b-b4a9-c4a8780dc397 .text-overlay .color-0 text{fill:black}#chart-08dad1c4-ce99-4c8b-b4a9-c4a8780dc397 .text-overlay .color-1 text{fill:black}#chart-08dad1c4-ce99-4c8b-b4a9-c4a8780dc397 .text-overlay .color-2 text{fill:black}#chart-08dad1c4-ce99-4c8b-b4a9-c4a8780dc397 .text-overlay .color-3 text{fill:black}#chart-08dad1c4-ce99-4c8b-b4a9-c4a8780dc397 .text-overlay .color-4 text{fill:black}#chart-08dad1c4-ce99-4c8b-b4a9-c4a8780dc397 .text-overlay .color-5 text{fill:black}
#chart-08dad1c4-ce99-4c8b-b4a9-c4a8780dc397 text.no_data{text-anchor:middle}#chart-08dad1c4-ce99-4c8b-b4a9-c4a8780dc397 .guide.line{fill:none}#chart-08dad1c4-ce99-4c8b-b4a9-c4a8780dc397 .centered{text-anchor:middle}#chart-08dad1c4-ce99-4c8b-b4a9-c4a8780dc397 .title{text-anchor:middle}#chart-08dad1c4-ce99-4c8b-b4a9-c4a8780dc397 .legends .legend text{fill-opacity:1}#chart-08dad1c4-ce99-4c8b-b4a9-c4a8780dc397 .axis.x text{text-anchor:middle}#chart-08dad1c4-ce99-4c8b-b4a9-c4a8780dc397 .axis.x:not(.web) text[transform]{text-anchor:start}#chart-08dad1c4-ce99-4c8b-b4a9-c4a8780dc397 .axis.x:not(.web) text[transform].backwards{text-anchor:end}#chart-08dad1c4-ce99-4c8b-b4a9-c4a8780dc397 .axis.y text{text-anchor:end}#chart-08dad1c4-ce99-4c8b-b4a9-c4a8780dc397 .axis.y text[transform].backwards{text-anchor:start}#chart-08dad1c4-ce99-4c8b-b4a9-c4a8780dc397 .axis.y2 text{text-anchor:start}#chart-08dad1c4-ce99-4c8b-b4a9-c4a8780dc397 .axis.y2 text[transform].backwards{text-anchor:end}#chart-08dad1c4-ce99-4c8b-b4a9-c4a8780dc397 .axis .guide.line{stroke-dasharray:4,4}#chart-08dad1c4-ce99-4c8b-b4a9-c4a8780dc397 .axis .major.guide.line{stroke-dasharray:6,6}#chart-08dad1c4-ce99-4c8b-b4a9-c4a8780dc397 .horizontal .axis.y .guide.line,#chart-08dad1c4-ce99-4c8b-b4a9-c4a8780dc397 .horizontal .axis.y2 .guide.line,#chart-08dad1c4-ce99-4c8b-b4a9-c4a8780dc397 .vertical .axis.x .guide.line{opacity:0}#chart-08dad1c4-ce99-4c8b-b4a9-c4a8780dc397 .horizontal .axis.always_show .guide.line,#chart-08dad1c4-ce99-4c8b-b4a9-c4a8780dc397 .vertical .axis.always_show .guide.line{opacity:1 !important}#chart-08dad1c4-ce99-4c8b-b4a9-c4a8780dc397 .axis.y .guides:hover .guide.line,#chart-08dad1c4-ce99-4c8b-b4a9-c4a8780dc397 .axis.y2 .guides:hover .guide.line,#chart-08dad1c4-ce99-4c8b-b4a9-c4a8780dc397 .axis.x .guides:hover .guide.line{opacity:1}#chart-08dad1c4-ce99-4c8b-b4a9-c4a8780dc397 .axis .guides:hover text{opacity:1}#chart-08dad1c4-ce99-4c8b-b4a9-c4a8780dc397 .nofill{fill:none}#chart-08dad1c4-ce99-4c8b-b4a9-c4a8780dc397 .subtle-fill{fill-opacity:.2}#chart-08dad1c4-ce99-4c8b-b4a9-c4a8780dc397 .dot{stroke-width:1px;fill-opacity:1}#chart-08dad1c4-ce99-4c8b-b4a9-c4a8780dc397 .dot.active{stroke-width:5px}#chart-08dad1c4-ce99-4c8b-b4a9-c4a8780dc397 .dot.negative{fill:transparent}#chart-08dad1c4-ce99-4c8b-b4a9-c4a8780dc397 text,#chart-08dad1c4-ce99-4c8b-b4a9-c4a8780dc397 tspan{stroke:none !important}#chart-08dad1c4-ce99-4c8b-b4a9-c4a8780dc397 .series text.active{opacity:1}#chart-08dad1c4-ce99-4c8b-b4a9-c4a8780dc397 .tooltip rect{fill-opacity:.95;stroke-width:.5}#chart-08dad1c4-ce99-4c8b-b4a9-c4a8780dc397 .tooltip text{fill-opacity:1}#chart-08dad1c4-ce99-4c8b-b4a9-c4a8780dc397 .showable{visibility:hidden}#chart-08dad1c4-ce99-4c8b-b4a9-c4a8780dc397 .showable.shown{visibility:visible}#chart-08dad1c4-ce99-4c8b-b4a9-c4a8780dc397 .gauge-background{fill:rgba(229,229,229,1);stroke:none}#chart-08dad1c4-ce99-4c8b-b4a9-c4a8780dc397 .bg-lines{stroke:rgba(249,249,249,1);stroke-width:2px}</style><script type="text/javascript">window.pygal = window.pygal || {};window.pygal.config = window.pygal.config || {};window.pygal.config['08dad1c4-ce99-4c8b-b4a9-c4a8780dc397'] = {"title": "Max distance for grouped primates(cumulative)", "truncate_legend": null, "js": ["//kozea.github.io/pygal.js/2.0.x/pygal-tooltips.min.js"], "legends": ["processed_transcript", "retained_intron", "lincRNA", "antisense", "novel", "protein_coding"], "stack_from_top": false, "show_y_guides": true, "tooltip_fancy_mode": true, "strict": false, "explicit_size": false, "x_labels_major_every": null, "no_data_text": "No data", "stroke": true, "x_labels_major": null, "range": null, "margin_right": null, "stroke_style": null, "force_uri_protocol": "http", "margin_left": null, "margin_bottom": null, "inner_radius": 0, "show_x_labels": true, "interpolate": null, "y_labels_major_count": null, "min_scale": 4, "box_mode": "extremes", "tooltip_border_radius": 0, "pretty_print": false, "y_title": null, "y_labels": null, "y_labels_major_every": null, "print_labels": false, "y_label_rotation": 0, "show_dots": true, "print_values": false, "margin_top": null, "height": 600, "rounded_bars": null, "missing_value_fill_truncation": "x", "order_min": null, "show_only_major_dots": false, "print_zeroes": true, "x_title": null, "defs": [], "interpolation_precision": 250, "include_x_axis": false, "show_legend": true, "legend_at_bottom_columns": null, "fill": false, "logarithmic": false, "max_scale": 16, "secondary_range": null, "classes": ["pygal-chart"], "x_labels": ["No_Alu", "Human", "Chimp - Bonobo", "Gorilla", "Orangutan", "Rhesus - MacFas - Atys - Baboon - GreenMonkey", "Marmoset", "Lemur"], "interpolation_parameters": {}, "truncate_label": null, "zero": 0, "formatter": null, "xrange": null, "allow_interruptions": false, "width": 800, "inverse_y_axis": false, "x_label_rotation": 30, "show_x_guides": false, "x_labels_major_count": null, "margin": 20, "style": {"value_label_font_size": 10, "title_font_size": 16, "stroke_opacity": ".8", "stroke_opacity_hover": ".9", "colors": ["#F44336", "#3F51B5", "#009688", "#FFC107", "#FF5722", "#9C27B0", "#03A9F4", "#8BC34A", "#FF9800", "#E91E63", "#2196F3", "#4CAF50", "#FFEB3B", "#673AB7", "#00BCD4", "#CDDC39", "#9E9E9E", "#607D8B"], "value_font_size": 16, "plot_background": "rgba(255, 255, 255, 1)", "legend_font_family": "Consolas, \"Liberation Mono\", Menlo, Courier, monospace", "transition": "150ms", "title_font_family": "Consolas, \"Liberation Mono\", Menlo, Courier, monospace", "value_font_family": "Consolas, \"Liberation Mono\", Menlo, Courier, monospace", "value_background": "rgba(229, 229, 229, 1)", "guide_stroke_dasharray": "4,4", "label_font_size": 10, "tooltip_font_family": "Consolas, \"Liberation Mono\", Menlo, Courier, monospace", "major_guide_stroke_dasharray": "6,6", "legend_font_size": 14, "font_family": "Consolas, \"Liberation Mono\", Menlo, Courier, monospace", "label_font_family": "Consolas, \"Liberation Mono\", Menlo, Courier, monospace", "no_data_font_size": 64, "major_label_font_size": 10, "ci_colors": [], "tooltip_font_size": 14, "foreground_subtle": "rgba(0, 0, 0, .54)", "foreground_strong": "rgba(0, 0, 0, 1)", "value_colors": [], "opacity": ".7", "foreground": "rgba(0, 0, 0, .87)", "background": "rgba(249, 249, 249, 1)", "no_data_font_family": "Consolas, \"Liberation Mono\", Menlo, Courier, monospace", "major_label_font_family": "Consolas, \"Liberation Mono\", Menlo, Courier, monospace", "opacity_hover": ".8", "value_label_font_family": "Consolas, \"Liberation Mono\", Menlo, Courier, monospace"}, "show_y_labels": true, "spacing": 10, "no_prefix": false, "y_labels_major": null, "dots_size": 2.5, "dynamic_print_values": false, "legend_box_size": 12, "legend_at_bottom": false, "disable_xml_declaration": false, "show_minor_y_labels": true, "print_values_position": "center", "css": ["file://style.css", "file://graph.css"], "show_minor_x_labels": true, "half_pie": false}</script><script type="text/javascript" xlink:href="http://kozea.github.io/pygal.js/2.0.x/pygal-tooltips.min.js" /></defs><title>Max distance for grouped primates(cumulative)</title><g class="graph dot-graph vertical"><rect class="background" height="600" width="800" x="0" y="0" /><g class="plot" transform="translate(298, 46)"><rect class="background" height="449.0" width="372.0961894323342" x="0" y="0" /><g class="axis y always_show"><path class="line" d="M0.000000 449.000000 h372.096189" /><g class="guides"><path class="guide line" d="M0.000000 44.612179 h372.096189" /><text class="" x="-5" y="48.1121794871795">processed_transcript</text><title>5.5</title></g><g class="guides"><path class="guide line" d="M0.000000 116.567308 h372.096189" /><text class="" x="-5" y="120.06730769230768">retained_intron</text><title>4.5</title></g><g class="guides"><path class="guide line" d="M0.000000 188.522436 h372.096189" /><text class="" x="-5" y="192.0224358974359">lincRNA</text><title>3.5</title></g><g class="guides"><path class="guide line" d="M0.000000 260.477564 h372.096189" /><text class="" x="-5" y="263.9775641025641">antisense</text><title>2.5</title></g><g class="guides"><path class="guide line" d="M0.000000 332.432692 h372.096189" /><text class="" x="-5" y="335.9326923076923">novel</text><title>1.5</title></g><g class="guides"><path class="guide line" d="M0.000000 404.387821 h372.096189" /><text class="" x="-5" y="407.8878205128205">protein_coding</text><title>0.5</title></g></g><g class="axis x"><path class="line" d="M0.000000 0.000000 v449.000000" /><g class="guides"><path class="guide line" d="M29.517246 0.000000 v449.000000" /><text class="" transform="rotate(30 29.517246 464.000000)" x="29.517245796314974" y="464.0">No_Alu</text></g><g class="guides"><path class="guide line" d="M74.240345 0.000000 v449.000000" /><text class="" transform="rotate(30 74.240345 464.000000)" x="74.24034548770129" y="464.0">Human</text></g><g class="guides"><path class="guide line" d="M118.963445 0.000000 v449.000000" /><text class="" transform="rotate(30 118.963445 464.000000)" x="118.96344517908763" y="464.0">Chimp - Bonobo</text></g><g class="guides"><path class="guide line" d="M163.686545 0.000000 v449.000000" /><text class="" transform="rotate(30 163.686545 464.000000)" x="163.68654487047394" y="464.0">Gorilla</text></g><g class="guides"><path class="guide line" d="M208.409645 0.000000 v449.000000" /><text class="" transform="rotate(30 208.409645 464.000000)" x="208.40964456186026" y="464.0">Orangutan</text></g><g class="guides"><path class="guide line" d="M253.132744 0.000000 v449.000000" /><text class="" transform="rotate(30 253.132744 464.000000)" x="253.1327442532466" y="464.0">Rhesus - MacFas - Atys -…</text><title>Rhesus - MacFas - Atys - Baboon - GreenMonkey</title></g><g class="guides"><path class="guide line" d="M297.855844 0.000000 v449.000000" /><text class="" transform="rotate(30 297.855844 464.000000)" x="297.8558439446329" y="464.0">Marmoset</text></g><g class="guides"><path class="guide line" d="M342.578944 0.000000 v449.000000" /><text class="" transform="rotate(30 342.578944 464.000000)" x="342.57894363601923" y="464.0">Lemur</text></g></g><g class="series serie-0 color-0"><g class="dots"><circle class="dot reactive tooltip-trigger" cx="29.517245796314974" cy="44.6121794871795" r="16.70688538159784" /><desc class="value">40.532</desc><desc class="x centered">29.517245796314974</desc><desc class="y centered">44.6121794871795</desc><desc class="x_label">No_Alu</desc></g><g class="dots"><circle class="dot reactive tooltip-trigger" cx="74.24034548770129" cy="44.6121794871795" r="1.5748293597407796" /><desc class="value">3.821</desc><desc class="x centered">74.24034548770129</desc><desc class="y centered">44.6121794871795</desc><desc class="x_label">Human</desc></g><g class="dots"><circle class="dot reactive tooltip-trigger" cx="118.96344517908763" cy="44.6121794871795" r="3.0127170360258395" /><desc class="value">7.309</desc><desc class="x centered">118.96344517908763</desc><desc class="y centered">44.6121794871795</desc><desc class="x_label">Chimp - Bonobo</desc></g><g class="dots"><circle class="dot reactive tooltip-trigger" cx="163.68654487047394" cy="44.6121794871795" r="0.47929589209501994" /><desc class="value">1.163</desc><desc class="x centered">163.68654487047394</desc><desc class="y centered">44.6121794871795</desc><desc class="x_label">Gorilla</desc></g><g class="dots"><circle class="dot reactive tooltip-trigger" cx="208.40964456186026" cy="44.6121794871795" r="0.34235420863929994" /><desc class="value">0.831</desc><desc class="x centered">208.40964456186026</desc><desc class="y centered">44.6121794871795</desc><desc class="x_label">Orangutan</desc></g><g class="dots"><circle class="dot reactive tooltip-trigger" cx="253.1327442532466" cy="44.6121794871795" r="13.625697503844139" /><desc class="value">33.056</desc><desc class="x centered">253.1327442532466</desc><desc class="y centered">44.6121794871795</desc><desc class="x_label">Rhesus - MacFas - Atys - Baboon - GreenMonkey</desc></g><g class="dots"><circle class="dot reactive tooltip-trigger" cx="297.8558439446329" cy="44.6121794871795" r="5.477667338228799" /><desc class="value">13.289</desc><desc class="x centered">297.8558439446329</desc><desc class="y centered">44.6121794871795</desc><desc class="x_label">Marmoset</desc></g><g class="dots"><circle class="dot reactive tooltip-trigger" cx="342.57894363601923" cy="44.6121794871795" r="0.0" /><desc class="value">0.000</desc><desc class="x centered">342.57894363601923</desc><desc class="y centered">44.6121794871795</desc><desc class="x_label">Lemur</desc></g></g><g class="series serie-1 color-1"><g class="dots"><circle class="dot reactive tooltip-trigger" cx="29.517245796314974" cy="116.56730769230768" r="20.483137727164024" /><desc class="value">49.693</desc><desc class="x centered">29.517245796314974</desc><desc class="y centered">116.56730769230768</desc><desc class="x_label">No_Alu</desc></g><g class="dots"><circle class="dot reactive tooltip-trigger" cx="74.24034548770129" cy="116.56730769230768" r="0.9573038489713585" /><desc class="value">2.322</desc><desc class="x centered">74.24034548770129</desc><desc class="y centered">116.56730769230768</desc><desc class="x_label">Human</desc></g><g class="dots"><circle class="dot reactive tooltip-trigger" cx="118.96344517908763" cy="116.56730769230768" r="2.792795526337929" /><desc class="value">6.775</desc><desc class="x centered">118.96344517908763</desc><desc class="y centered">116.56730769230768</desc><desc class="x_label">Chimp - Bonobo</desc></g><g class="dots"><circle class="dot reactive tooltip-trigger" cx="163.68654487047394" cy="116.56730769230768" r="0.3876685008231121" /><desc class="value">0.940</desc><desc class="x centered">163.68654487047394</desc><desc class="y centered">116.56730769230768</desc><desc class="x_label">Gorilla</desc></g><g class="dots"><circle class="dot reactive tooltip-trigger" cx="208.40964456186026" cy="116.56730769230768" r="0.22943645967082146" /><desc class="value">0.557</desc><desc class="x centered">208.40964456186026</desc><desc class="y centered">116.56730769230768</desc><desc class="x_label">Orangutan</desc></g><g class="dots"><circle class="dot reactive tooltip-trigger" cx="253.1327442532466" cy="116.56730769230768" r="11.93860750494033" /><desc class="value">28.964</desc><desc class="x centered">253.1327442532466</desc><desc class="y centered">116.56730769230768</desc><desc class="x_label">Rhesus - MacFas - Atys - Baboon - GreenMonkey</desc></g><g class="dots"><circle class="dot reactive tooltip-trigger" cx="297.8558439446329" cy="116.56730769230768" r="4.390939141976065" /><desc class="value">10.653</desc><desc class="x centered">297.8558439446329</desc><desc class="y centered">116.56730769230768</desc><desc class="x_label">Marmoset</desc></g><g class="dots"><circle class="dot reactive tooltip-trigger" cx="342.57894363601923" cy="116.56730769230768" r="0.03955801028807266" /><desc class="value">0.096</desc><desc class="x centered">342.57894363601923</desc><desc class="y centered">116.56730769230768</desc><desc class="x_label">Lemur</desc></g></g><g class="series serie-2 color-2"><g class="dots"><circle class="dot reactive tooltip-trigger" cx="29.517245796314974" cy="188.5224358974359" r="17.448231815529" /><desc class="value">42.330</desc><desc class="x centered">29.517245796314974</desc><desc class="y centered">188.5224358974359</desc><desc class="x_label">No_Alu</desc></g><g class="dots"><circle class="dot reactive tooltip-trigger" cx="74.24034548770129" cy="188.5224358974359" r="1.8408684942989308" /><desc class="value">4.466</desc><desc class="x centered">74.24034548770129</desc><desc class="y centered">188.5224358974359</desc><desc class="x_label">Human</desc></g><g class="dots"><circle class="dot reactive tooltip-trigger" cx="118.96344517908763" cy="188.5224358974359" r="3.401604826421938" /><desc class="value">8.252</desc><desc class="x centered">118.96344517908763</desc><desc class="y centered">188.5224358974359</desc><desc class="x_label">Chimp - Bonobo</desc></g><g class="dots"><circle class="dot reactive tooltip-trigger" cx="163.68654487047394" cy="188.5224358974359" r="0.36016992279761695" /><desc class="value">0.874</desc><desc class="x centered">163.68654487047394</desc><desc class="y centered">188.5224358974359</desc><desc class="x_label">Gorilla</desc></g><g class="dots"><circle class="dot reactive tooltip-trigger" cx="208.40964456186026" cy="188.5224358974359" r="0.5202454440410021" /><desc class="value">1.262</desc><desc class="x centered">208.40964456186026</desc><desc class="y centered">188.5224358974359</desc><desc class="x_label">Orangutan</desc></g><g class="dots"><circle class="dot reactive tooltip-trigger" cx="253.1327442532466" cy="188.5224358974359" r="12.605947297916591" /><desc class="value">30.583</desc><desc class="x centered">253.1327442532466</desc><desc class="y centered">188.5224358974359</desc><desc class="x_label">Rhesus - MacFas - Atys - Baboon - GreenMonkey</desc></g><g class="dots"><circle class="dot reactive tooltip-trigger" cx="297.8558439446329" cy="188.5224358974359" r="5.002360038855791" /><desc class="value">12.136</desc><desc class="x centered">297.8558439446329</desc><desc class="y centered">188.5224358974359</desc><desc class="x_label">Marmoset</desc></g><g class="dots"><circle class="dot reactive tooltip-trigger" cx="342.57894363601923" cy="188.5224358974359" r="0.04001888031084633" /><desc class="value">0.097</desc><desc class="x centered">342.57894363601923</desc><desc class="y centered">188.5224358974359</desc><desc class="x_label">Lemur</desc></g></g><g class="series serie-3 color-3"><g class="dots"><circle class="dot reactive tooltip-trigger" cx="29.517245796314974" cy="260.4775641025641" r="17.365096727319482" /><desc class="value">42.128</desc><desc class="x centered">29.517245796314974</desc><desc class="y centered">260.4775641025641</desc><desc class="x_label">No_Alu</desc></g><g class="dots"><circle class="dot reactive tooltip-trigger" cx="74.24034548770129" cy="260.4775641025641" r="2.1751686923573463" /><desc class="value">5.277</desc><desc class="x centered">74.24034548770129</desc><desc class="y centered">260.4775641025641</desc><desc class="x_label">Human</desc></g><g class="dots"><circle class="dot reactive tooltip-trigger" cx="118.96344517908763" cy="260.4775641025641" r="3.7340395885467776" /><desc class="value">9.059</desc><desc class="x centered">118.96344517908763</desc><desc class="y centered">260.4775641025641</desc><desc class="x_label">Chimp - Bonobo</desc></g><g class="dots"><circle class="dot reactive tooltip-trigger" cx="163.68654487047394" cy="260.4775641025641" r="0.14501124615715644" /><desc class="value">0.352</desc><desc class="x centered">163.68654487047394</desc><desc class="y centered">260.4775641025641</desc><desc class="x_label">Gorilla</desc></g><g class="dots"><circle class="dot reactive tooltip-trigger" cx="208.40964456186026" cy="260.4775641025641" r="0.688803419246493" /><desc class="value">1.671</desc><desc class="x centered">208.40964456186026</desc><desc class="y centered">260.4775641025641</desc><desc class="x_label">Orangutan</desc></g><g class="dots"><circle class="dot reactive tooltip-trigger" cx="253.1327442532466" cy="260.4775641025641" r="11.673405315651092" /><desc class="value">28.320</desc><desc class="x centered">253.1327442532466</desc><desc class="y centered">260.4775641025641</desc><desc class="x_label">Rhesus - MacFas - Atys - Baboon - GreenMonkey</desc></g><g class="dots"><circle class="dot reactive tooltip-trigger" cx="297.8558439446329" cy="260.4775641025641" r="5.401668919354076" /><desc class="value">13.105</desc><desc class="x centered">297.8558439446329</desc><desc class="y centered">260.4775641025641</desc><desc class="x_label">Marmoset</desc></g><g class="dots"><circle class="dot reactive tooltip-trigger" cx="342.57894363601923" cy="260.4775641025641" r="0.03625281153928911" /><desc class="value">0.088</desc><desc class="x centered">342.57894363601923</desc><desc class="y centered">260.4775641025641</desc><desc class="x_label">Lemur</desc></g></g><g class="series serie-4 color-4"><g class="dots"><circle class="dot reactive tooltip-trigger" cx="29.517245796314974" cy="332.4326923076923" r="21.296714138755387" /><desc class="value">51.667</desc><desc class="x centered">29.517245796314974</desc><desc class="y centered">332.4326923076923</desc><desc class="x_label">No_Alu</desc></g><g class="dots"><circle class="dot reactive tooltip-trigger" cx="74.24034548770129" cy="332.4326923076923" r="3.160157581879831" /><desc class="value">7.667</desc><desc class="x centered">74.24034548770129</desc><desc class="y centered">332.4326923076923</desc><desc class="x_label">Human</desc></g><g class="dots"><circle class="dot reactive tooltip-trigger" cx="118.96344517908763" cy="332.4326923076923" r="2.060972336008586" /><desc class="value">5.000</desc><desc class="x centered">118.96344517908763</desc><desc class="y centered">332.4326923076923</desc><desc class="x_label">Chimp - Bonobo</desc></g><g class="dots"><circle class="dot reactive tooltip-trigger" cx="163.68654487047394" cy="332.4326923076923" r="0.27479631146781147" /><desc class="value">0.667</desc><desc class="x centered">163.68654487047394</desc><desc class="y centered">332.4326923076923</desc><desc class="x_label">Gorilla</desc></g><g class="dots"><circle class="dot reactive tooltip-trigger" cx="208.40964456186026" cy="332.4326923076923" r="0.4121944672017171" /><desc class="value">1.000</desc><desc class="x centered">208.40964456186026</desc><desc class="y centered">332.4326923076923</desc><desc class="x_label">Orangutan</desc></g><g class="dots"><circle class="dot reactive tooltip-trigger" cx="253.1327442532466" cy="332.4326923076923" r="10.030065368575118" /><desc class="value">24.333</desc><desc class="x centered">253.1327442532466</desc><desc class="y centered">332.4326923076923</desc><desc class="x_label">Rhesus - MacFas - Atys - Baboon - GreenMonkey</desc></g><g class="dots"><circle class="dot reactive tooltip-trigger" cx="297.8558439446329" cy="332.4326923076923" r="3.9845465162832654" /><desc class="value">9.667</desc><desc class="x centered">297.8558439446329</desc><desc class="y centered">332.4326923076923</desc><desc class="x_label">Marmoset</desc></g><g class="dots"><circle class="dot reactive tooltip-trigger" cx="342.57894363601923" cy="332.4326923076923" r="0.0" /><desc class="value">0.000</desc><desc class="x centered">342.57894363601923</desc><desc class="y centered">332.4326923076923</desc><desc class="x_label">Lemur</desc></g></g><g class="series serie-5 color-5"><g class="dots"><circle class="dot reactive tooltip-trigger" cx="29.517245796314974" cy="404.3878205128205" r="17.882898423212957" /><desc class="value">43.385</desc><desc class="x centered">29.517245796314974</desc><desc class="y centered">404.3878205128205</desc><desc class="x_label">No_Alu</desc></g><g class="dots"><circle class="dot reactive tooltip-trigger" cx="74.24034548770129" cy="404.3878205128205" r="4.69267547275801" /><desc class="value">11.385</desc><desc class="x centered">74.24034548770129</desc><desc class="y centered">404.3878205128205</desc><desc class="x_label">Human</desc></g><g class="dots"><circle class="dot reactive tooltip-trigger" cx="118.96344517908763" cy="404.3878205128205" r="2.6634104034572497" /><desc class="value">6.462</desc><desc class="x centered">118.96344517908763</desc><desc class="y centered">404.3878205128205</desc><desc class="x_label">Chimp - Bonobo</desc></g><g class="dots"><circle class="dot reactive tooltip-trigger" cx="163.68654487047394" cy="404.3878205128205" r="0.2536581336625952" /><desc class="value">0.615</desc><desc class="x centered">163.68654487047394</desc><desc class="y centered">404.3878205128205</desc><desc class="x_label">Gorilla</desc></g><g class="dots"><circle class="dot reactive tooltip-trigger" cx="208.40964456186026" cy="404.3878205128205" r="0.2536581336625952" /><desc class="value">0.615</desc><desc class="x centered">208.40964456186026</desc><desc class="y centered">404.3878205128205</desc><desc class="x_label">Orangutan</desc></g><g class="dots"><circle class="dot reactive tooltip-trigger" cx="253.1327442532466" cy="404.3878205128205" r="12.17559041580457" /><desc class="value">29.538</desc><desc class="x centered">253.1327442532466</desc><desc class="y centered">404.3878205128205</desc><desc class="x_label">Rhesus - MacFas - Atys - Baboon - GreenMonkey</desc></g><g class="dots"><circle class="dot reactive tooltip-trigger" cx="297.8558439446329" cy="404.3878205128205" r="3.2975557376137368" /><desc class="value">8.000</desc><desc class="x centered">297.8558439446329</desc><desc class="y centered">404.3878205128205</desc><desc class="x_label">Marmoset</desc></g><g class="dots"><circle class="dot reactive tooltip-trigger" cx="342.57894363601923" cy="404.3878205128205" r="0.0" /><desc class="value">0.000</desc><desc class="x centered">342.57894363601923</desc><desc class="y centered">404.3878205128205</desc><desc class="x_label">Lemur</desc></g></g></g><g class="titles"><text class="title plot_title" x="400.0" y="26">Max distance for grouped primates(cumulative)</text></g><g class="plot overlay" transform="translate(298, 46)"><g class="series serie-0 color-0" /><g class="series serie-1 color-1" /><g class="series serie-2 color-2" /><g class="series serie-3 color-3" /><g class="series serie-4 color-4" /><g class="series serie-5 color-5" /></g><g class="plot text-overlay" transform="translate(298, 46)"><g class="series serie-0 color-0" /><g class="series serie-1 color-1" /><g class="series serie-2 color-2" /><g class="series serie-3 color-3" /><g class="series serie-4 color-4" /><g class="series serie-5 color-5" /></g><g class="plot tooltip-overlay" transform="translate(298, 46)"><g class="tooltip" style="opacity: 0" transform="translate(0 0)"><rect class="tooltip-box" height="0" rx="0" ry="0" width="0" /><g class="text" /></g></g><g class="legends" transform="translate(10, 56)"><g class="legend reactive activate-serie" id="activate-serie-0"><rect class="color-0 reactive" height="12" width="12" x="0.0" y="1.0" /><text x="17.0" y="11.2">processed_tran…</text><title>processed_transcript</title></g><g class="legend reactive activate-serie" id="activate-serie-1"><rect class="color-1 reactive" height="12" width="12" x="0.0" y="22.0" /><text x="17.0" y="32.2">retained_intron</text></g><g class="legend reactive activate-serie" id="activate-serie-2"><rect class="color-2 reactive" height="12" width="12" x="0.0" y="43.0" /><text x="17.0" y="53.2">lincRNA</text></g><g class="legend reactive activate-serie" id="activate-serie-3"><rect class="color-3 reactive" height="12" width="12" x="0.0" y="64.0" /><text x="17.0" y="74.2">antisense</text></g><g class="legend reactive activate-serie" id="activate-serie-4"><rect class="color-4 reactive" height="12" width="12" x="0.0" y="85.0" /><text x="17.0" y="95.2">novel</text></g><g class="legend reactive activate-serie" id="activate-serie-5"><rect class="color-5 reactive" height="12" width="12" x="0.0" y="106.0" /><text x="17.0" y="116.2">protein_coding</text></g></g><g class="legends" transform="translate(680, 56)" /></g></svg>